<?xml version="1.0" standalone="no"?><!DOCTYPE svg PUBLIC "-//W3C//DTD SVG 1.1//EN" "http://www.w3.org/Graphics/SVG/1.1/DTD/svg11.dtd">
<svg class="icon" width="200px" height="200.00px" viewBox="0 0 1024 1024" version="1.1" xmlns="http://www.w3.org/2000/svg">
	<path d='M810.666667 512V367.786667c-70.613333 37.76-178.56 58.88-298.666667 58.88-120.106667 0-228.053333-21.12-298.666667-58.88V512c0 35.712 132.309333 85.333333 298.666667 85.333333s298.666667-49.621333 298.666667-85.333333z m0 111.786667c-70.613333 37.76-178.56 58.88-298.666667 58.88-120.106667 0-228.053333-21.12-298.666667-58.88V768c0 35.712 132.309333 85.333333 298.666667 85.333333s298.666667-49.621333 298.666667-85.333333v-144.213333zM128 256c0-105.685333 173.312-170.666667 384-170.666667s384 64.981333 384 170.666667v512c0 105.685333-173.312 170.666667-384 170.666667s-384-64.981333-384-170.666667V256z m384 85.333333c166.357333 0 298.666667-49.621333 298.666667-85.333333s-132.309333-85.333333-298.666667-85.333333-298.666667 49.621333-298.666667 85.333333 132.309333 85.333333 298.666667 85.333333z' />
</svg>