<?xml version="1.0" standalone="no"?><!DOCTYPE svg PUBLIC "-//W3C//DTD SVG 1.1//EN" "http://www.w3.org/Graphics/SVG/1.1/DTD/svg11.dtd">
<svg class="icon" width="200px" height="200.00px" viewBox="0 0 1024 1024" version="1.1" xmlns="http://www.w3.org/2000/svg">
	<path stroke='currentColor' stroke-width='40px' d='M810.666667 554.666667H213.333333a42.666667 42.666667 0 0 1 0-85.333334h597.333334a42.666667 42.666667 0 0 1 0 85.333334z' />
</svg>