<?xml version="1.0" standalone="no"?><!DOCTYPE svg PUBLIC "-//W3C//DTD SVG 1.1//EN" "http://www.w3.org/Graphics/SVG/1.1/DTD/svg11.dtd">
<svg class="icon" width="200px" height="200.00px" viewBox="0 0 1024 1024" version="1.1" xmlns="http://www.w3.org/2000/svg">
	<path d='M730.453333 426.666667 684.373333 349.013333 653.226667 471.466667 759.466667 665.173333 759.466667 938.666667 682.666667 938.666667 682.666667 725.333333 583.253333 592.64 514.986667 785.066667 309.333333 874.666667 264.533333 810.666667 443.306667 705.28 550.826667 284.586667 460.8 312.746667 460.8 469.333333 384 469.333333 384 247.466667 615.253333 175.36 636.586667 171.946667C663.04 171.946667 686.08 186.453333 698.88 207.786667L784.213333 349.866667 938.666667 349.866667 938.666667 426.666667 730.453333 426.666667M725.333333 162.133333C682.666667 162.133333 648.533333 128 648.533333 85.333333 648.533333 42.666667 682.666667 8.533333 725.333333 8.533333 768 8.533333 802.133333 42.666667 802.133333 85.333333 802.133333 128 768 162.133333 725.333333 162.133333M298.666667 384 298.666667 469.333333 170.666667 469.333333C147.2 469.333333 128 450.133333 128 426.666667 128 403.2 147.2 384 170.666667 384L298.666667 384M394.666667 554.666667 373.333333 640 213.333333 640C189.866667 640 170.666667 620.8 170.666667 597.333333 170.666667 573.866667 189.866667 554.666667 213.333333 554.666667L394.666667 554.666667M298.666667 213.333333 298.666667 298.666667 128 298.666667C104.533333 298.666667 85.333333 279.466667 85.333333 256 85.333333 232.533333 104.533333 213.333333 128 213.333333L298.666667 213.333333Z' />
</svg>