<?xml version="1.0" standalone="no"?><!DOCTYPE svg PUBLIC "-//W3C//DTD SVG 1.1//EN" "http://www.w3.org/Graphics/SVG/1.1/DTD/svg11.dtd">
<svg class="icon" width="200px" height="200.00px" viewBox="0 0 1024 1024" version="1.1" xmlns="http://www.w3.org/2000/svg">
	<path stroke='currentColor' stroke-width="10" d='M800 128h-576A96.213333 96.213333 0 0 0 128 224v576a96.213333 96.213333 0 0 0 96 96h576a96.213333 96.213333 0 0 0 96-96v-576A96.213333 96.213333 0 0 0 800 128z m-149.333333 73.6v251.52h-277.333334V201.6zM832 800a32 32 0 0 1-32 32h-576A32 32 0 0 1 192 800v-576A32 32 0 0 1 224 192h85.333333v271.786667a53.333333 53.333333 0 0 0 53.333334 53.333333h298.666666a53.333333 53.333333 0 0 0 53.333334-53.333333V192h85.333333a32 32 0 0 1 32 32z' />
</svg>